{
  "16374_P01_S01_NV01_RQP2_PipelineVersion_3.0": {
    "box_dimensions": [
      0.10815959423780441,
      0.14047397673130035,
      0.1786051020026207
    ],
    "area": 0.11745591149162865,
    "volume": 0.0008843488339901104,
    "profile": "RQP2",
    "state": null,
    "article_number": "16374"
  }
}